{
  "project_info": {
    "project_number": "997255892867",
    "firebase_url": "https://api-project-997255892867.firebaseio.com",
    "project_id": "api-project-997255892867",
    "storage_bucket": "api-project-997255892867.appspot.com"
  },
  "client": [
    {
      "client_info": {
        "mobilesdk_app_id": "1:997255892867:android:248482a215fc09ea",
        "android_client_info": {
          "package_name": "com.tmsdemo"
        }
      },
      "oauth_client": [
        {
          "client_id": "997255892867-p5bfo6iu5nbb8ihlh15tkl0d60v8ifag.apps.googleusercontent.com",
          "client_type": 3
        }
      ],
      "api_key": [
        {
          "current_key": "AIzaSyBvi_tAhMf37qY7b7gzriNitUyMvmyqiTA"
        }
      ],
      "services": {
        "analytics_service": {
          "status": 1
        },
        "appinvite_service": {
          "status": 1,
          "other_platform_oauth_client": []
        },
        "ads_service": {
          "status": 2
        }
      }
    },
    {
      "client_info": {
        "mobilesdk_app_id": "1:997255892867:android:74f4e0630160e60c",
        "android_client_info": {
          "package_name": "com.tmsdemo.a"
        }
      },
      "oauth_client": [
        {
          "client_id": "997255892867-p5bfo6iu5nbb8ihlh15tkl0d60v8ifag.apps.googleusercontent.com",
          "client_type": 3
        }
      ],
      "api_key": [
        {
          "current_key": "AIzaSyBvi_tAhMf37qY7b7gzriNitUyMvmyqiTA"
        }
      ],
      "services": {
        "analytics_service": {
          "status": 1
        },
        "appinvite_service": {
          "status": 1,
          "other_platform_oauth_client": []
        },
        "ads_service": {
          "status": 2
        }
      }
    },
    {
      "client_info": {
        "mobilesdk_app_id": "1:997255892867:android:f36173e948059ccb",
        "android_client_info": {
          "package_name": "gcm.play.android.samples.com.gcmquickstart"
        }
      },
      "oauth_client": [
        {
          "client_id": "997255892867-p5bfo6iu5nbb8ihlh15tkl0d60v8ifag.apps.googleusercontent.com",
          "client_type": 3
        }
      ],
      "api_key": [
        {
          "current_key": "AIzaSyBvi_tAhMf37qY7b7gzriNitUyMvmyqiTA"
        }
      ],
      "services": {
        "analytics_service": {
          "status": 1
        },
        "appinvite_service": {
          "status": 1,
          "other_platform_oauth_client": []
        },
        "ads_service": {
          "status": 2
        }
      }
    },
    {
      "client_info": {
        "mobilesdk_app_id": "1:997255892867:android:8886f838bdf97887",
        "android_client_info": {
          "package_name": "com.tms.sdk"
        }
      },
      "oauth_client": [
        {
          "client_id": "997255892867-p5bfo6iu5nbb8ihlh15tkl0d60v8ifag.apps.googleusercontent.com",
          "client_type": 3
        }
      ],
      "api_key": [
        {
          "current_key": "AIzaSyBvi_tAhMf37qY7b7gzriNitUyMvmyqiTA"
        }
      ],
      "services": {
        "analytics_service": {
          "status": 1
        },
        "appinvite_service": {
          "status": 1,
          "other_platform_oauth_client": []
        },
        "ads_service": {
          "status": 2
        }
      }
    },
    {
      "client_info": {
        "mobilesdk_app_id": "1:997255892867:android:d671d3deb622ac16",
        "android_client_info": {
          "package_name": "com.apms.sdk"
        }
      },
      "oauth_client": [
        {
          "client_id": "997255892867-p5bfo6iu5nbb8ihlh15tkl0d60v8ifag.apps.googleusercontent.com",
          "client_type": 3
        }
      ],
      "api_key": [
        {
          "current_key": "AIzaSyBvi_tAhMf37qY7b7gzriNitUyMvmyqiTA"
        }
      ],
      "services": {
        "analytics_service": {
          "status": 1
        },
        "appinvite_service": {
          "status": 1,
          "other_platform_oauth_client": []
        },
        "ads_service": {
          "status": 2
        }
      }
    },
    {
      "client_info": {
        "mobilesdk_app_id": "1:997255892867:android:57870e1d6beb99c6",
        "android_client_info": {
          "package_name": "com.apmsdemo"
        }
      },
      "oauth_client": [
        {
          "client_id": "997255892867-p5bfo6iu5nbb8ihlh15tkl0d60v8ifag.apps.googleusercontent.com",
          "client_type": 3
        }
      ],
      "api_key": [
        {
          "current_key": "AIzaSyBvi_tAhMf37qY7b7gzriNitUyMvmyqiTA"
        }
      ],
      "services": {
        "analytics_service": {
          "status": 1
        },
        "appinvite_service": {
          "status": 1,
          "other_platform_oauth_client": []
        },
        "ads_service": {
          "status": 2
        }
      }
    },
    {
      "client_info": {
        "mobilesdk_app_id": "1:997255892867:android:67c8a898e0dc821d",
        "android_client_info": {
          "package_name": "com.amcdemo"
        }
      },
      "oauth_client": [
        {
          "client_id": "997255892867-p5bfo6iu5nbb8ihlh15tkl0d60v8ifag.apps.googleusercontent.com",
          "client_type": 3
        }
      ],
      "api_key": [
        {
          "current_key": "AIzaSyBvi_tAhMf37qY7b7gzriNitUyMvmyqiTA"
        }
      ],
      "services": {
        "analytics_service": {
          "status": 1
        },
        "appinvite_service": {
          "status": 1,
          "other_platform_oauth_client": []
        },
        "ads_service": {
          "status": 2
        }
      }
    },
    {
      "client_info": {
        "mobilesdk_app_id": "1:997255892867:android:2ca14abd09819909",
        "android_client_info": {
          "package_name": "com.pms.sdk"
        }
      },
      "oauth_client": [
        {
          "client_id": "997255892867-p5bfo6iu5nbb8ihlh15tkl0d60v8ifag.apps.googleusercontent.com",
          "client_type": 3
        }
      ],
      "api_key": [
        {
          "current_key": "AIzaSyBvi_tAhMf37qY7b7gzriNitUyMvmyqiTA"
        }
      ],
      "services": {
        "analytics_service": {
          "status": 1
        },
        "appinvite_service": {
          "status": 1,
          "other_platform_oauth_client": []
        },
        "ads_service": {
          "status": 2
        }
      }
    },
    {
      "client_info": {
        "mobilesdk_app_id": "1:997255892867:android:7d66715654ed436f",
        "android_client_info": {
          "package_name": "com.pms.demo"
        }
      },
      "oauth_client": [
        {
          "client_id": "997255892867-p5bfo6iu5nbb8ihlh15tkl0d60v8ifag.apps.googleusercontent.com",
          "client_type": 3
        }
      ],
      "api_key": [
        {
          "current_key": "AIzaSyBvi_tAhMf37qY7b7gzriNitUyMvmyqiTA"
        }
      ],
      "services": {
        "analytics_service": {
          "status": 1
        },
        "appinvite_service": {
          "status": 1,
          "other_platform_oauth_client": []
        },
        "ads_service": {
          "status": 2
        }
      }
    },
    {
      "client_info": {
        "mobilesdk_app_id": "1:997255892867:android:cbd8837f02307ff1",
        "android_client_info": {
          "package_name": "com.pmsdemo"
        }
      },
      "oauth_client": [
        {
          "client_id": "997255892867-p5bfo6iu5nbb8ihlh15tkl0d60v8ifag.apps.googleusercontent.com",
          "client_type": 3
        }
      ],
      "api_key": [
        {
          "current_key": "AIzaSyBvi_tAhMf37qY7b7gzriNitUyMvmyqiTA"
        }
      ],
      "services": {
        "analytics_service": {
          "status": 1
        },
        "appinvite_service": {
          "status": 1,
          "other_platform_oauth_client": []
        },
        "ads_service": {
          "status": 2
        }
      }
    },
    {
      "client_info": {
        "mobilesdk_app_id": "1:997255892867:android:8bbe058284d403d2",
        "android_client_info": {
          "package_name": "kr.co.galleria.m"
        }
      },
      "oauth_client": [
        {
          "client_id": "997255892867-p5bfo6iu5nbb8ihlh15tkl0d60v8ifag.apps.googleusercontent.com",
          "client_type": 3
        }
      ],
      "api_key": [
        {
          "current_key": "AIzaSyBvi_tAhMf37qY7b7gzriNitUyMvmyqiTA"
        }
      ],
      "services": {
        "analytics_service": {
          "status": 1
        },
        "appinvite_service": {
          "status": 1,
          "other_platform_oauth_client": []
        },
        "ads_service": {
          "status": 2
        }
      }
    }
  ],
  "configuration_version": "1"
}